{
  "imageActionName": "uploadImg",
  "imageFieldName": "img",
  "imageMaxSize": 2048000,
  "imageAllowFiles": [".png", ".jpg", ".jpeg", ".gif", ".bmp"],
  "imageCompressEnable": true,
  "imageCompressBorder": 1600,
  "imageInsertAlign": "none",
  "imageUrlPrefix": "",
  "imagePathFormat": "",

  "scrawlActionName": "uploadscrawl",
  "scrawlFieldName": "upfile",
  "scrawlPathFormat": "/ueditor/jsp/upload/image/{yyyy}{mm}{dd}/{time}{rand:6}",
  "scrawlMaxSize": 2048000,
  "scrawlUrlPrefix": "",
  "scrawlInsertAlign": "none",

  "snapscreenActionName": "uploadimage",
  "snapscreenPathFormat": "/ueditor/jsp/upload/image/{yyyy}{mm}{dd}/{time}{rand:6}",
  "snapscreenUrlPrefix": "",
  "snapscreenInsertAlign": "none",

  "catcherLocalDomain": ["127.0.0.1", "localhost", "img.baidu.com"],
  "catcherActionName": "catchimage",
  "catcherFieldName": "source",
  "catcherPathFormat": "/ueditor/jsp/upload/image/{yyyy}{mm}{dd}/{time}{rand:6}",
  "catcherUrlPrefix": "",
  "catcherMaxSize": 2048000,
  "catcherAllowFiles": [".png", ".jpg", ".jpeg", ".gif", ".bmp"],

  "videoActionName": "uploadvideo",
  "videoFieldName": "upfile",
  "videoPathFormat": "/ueditor/jsp/upload/video/{yyyy}{mm}{dd}/{time}{rand:6}",
  "videoUrlPrefix": "",
  "videoMaxSize": 102400000,
  "videoAllowFiles": [
    ".flv", ".swf", ".mkv", ".avi", ".rm", ".rmvb", ".mpeg", ".mpg",
    ".ogg", ".ogv", ".mov", ".wmv", ".mp4", ".webm", ".mp3", ".wav", ".mid"],

  "fileActionName": "uploadFile",
  "fileFieldName": "file",
  "filePathFormat": "",
  "fileUrlPrefix": "",
  "fileMaxSize": 51200000,
  "fileAllowFiles": [
    ".png", ".jpg", ".jpeg", ".gif", ".bmp",
    ".flv", ".swf", ".mkv", ".avi", ".rm", ".rmvb", ".mpeg", ".mpg",
    ".ogg", ".ogv", ".mov", ".wmv", ".mp4", ".webm", ".mp3", ".wav", ".mid",
    ".rar", ".zip", ".tar", ".gz", ".7z", ".bz2", ".cab", ".iso",
    ".doc", ".docx", ".xls", ".xlsx", ".ppt", ".pptx", ".pdf", ".txt", ".md", ".xml"
  ],

  "imageManagerActionName": "uploadImg",
  "imageManagerListPath": "",
  "imageManagerListSize": 20,
  "imageManagerUrlPrefix": "",
  "imageManagerInsertAlign": "none",
  "imageManagerAllowFiles": [".png", ".jpg", ".jpeg", ".gif", ".bmp"],

  "fileManagerActionName": "uploadFile",
  "fileManagerListPath": "",
  "fileManagerUrlPrefix": "",
  "fileManagerListSize": 20,
  "fileManagerAllowFiles": [
    ".png", ".jpg", ".jpeg", ".gif", ".bmp",
    ".flv", ".swf", ".mkv", ".avi", ".rm", ".rmvb", ".mpeg", ".mpg",
    ".ogg", ".ogv", ".mov", ".wmv", ".mp4", ".webm", ".mp3", ".wav", ".mid",
    ".rar", ".zip", ".tar", ".gz", ".7z", ".bz2", ".cab", ".iso",
    ".doc", ".docx", ".xls", ".xlsx", ".ppt", ".pptx", ".pdf", ".txt", ".md", ".xml"
  ]
}