{
  "systemeSttings": [
    {
      "title": "代理机构信息",
      "icon": "&#xe672;",
      "href": "/pageTag/menu?url=proxyList",
      "spread": false
    },
    {
      "title": "IP币流水一览",
      "icon": "icon-log",
      "href": "/pageTag/menu?url=ipCoinLogList",
      "spread": false
    },
    {
      "title": "搜索统计",
      "icon": "&#xe615;",
      "href": "/pageTag/menu?url=searchTerm",
      "spread": false
    },
    {
      "title": "搜索列表",
      "icon": "&#xe62d;",
      "href": "/pageTag/menu?url=patentList",
      "spread": false
    },
    {
      "title": "评论举报一览",
      "icon": "&#xe667;",
      "href": "/pageTag/menu?url=commentReportList",
      "spread": false
    },
    {
      "title": "用户反馈一览",
      "icon": "&#xe6b2;",
      "href": "/pageTag/menu?url=userSuggestList",
      "spread": false
    },
    {
      "title": "下载统计",
      "icon": "&#xe601;",
      "href": "/pageTag/menu?url=patentDownLoad",
      "spread": false
    },
    {
      "title": "PDF缺失",
      "icon": "icon-text",
      "href": "/pageTag/menu?url=losePdf",
      "spread": false
    },
    {
      "title": "ipc管理",
      "icon": "&#xe630;",
      "href": "/pageTag/menu?url=ipc",
      "spread": false
    },
    {
      "title": "专利标签字典",
      "icon": "&#xe705;",
      "href": "/pageTag/menu?url=patentTags",
      "spread": false
    },
    {
      "title": "IP币兑换字典",
      "icon": "&#xe65e;",
      "href": "/pageTag/menu?url=ipCoinExchange",
      "spread": false
    }
  ],
  "memberCenter": [
    {
      "title": "用户中心",
      "icon": "&#xe770;",
      "href": "/pageTag/menu?url=userList",
      "spread": false
    },
    {
      "title": "系统角色管理",
      "icon": "&#xe653;",
      "href": "/sys/role/list",
      "spread": false
    },
    {
      "title": "模块角色管理",
      "icon": "&#xe653;",
      "href": "/module/role/list",
      "spread": false
    },
    {
      "title": "用户管理",
      "icon": "&#xe770;",
      "href": "/sys/user/mysql/list",
      "spread": false
    },
    {
      "title": "代理机构管理",
      "icon": "&#xe630;",
      "href": "/frequentProxy/list",
      "spread": false
    },
    {
      "title": "IP会员中心",
      "icon": "&#xe658;",
      "href": "/pageTag/menu?url=ipTopVipUserList",
      "spread": false
    },
    {
      "title": "IP会员级别维护",
      "icon": "&#xe716;",
      "href": "/pageTag/menu?url=ipTopVipList",
      "spread": false
    },
    {
      "title": "登陆日志",
      "icon": "icon-log",
      "href": "/pageTag/menu?url=logs",
      "spread": false
    },
    {
      "title": "用户统计",
      "icon": "&#xe629;",
      "href": "/pageTag/menu?url=userStatistics",
      "spread": false
    },
    {
      "title": "行业分析报告",
      "icon": "&#xe62c;",
      "href": "/pageTag/menu?url=industryAnalyzerReportSearch",
      "spread": false
    }
  ],
  "orderList": [
    {
      "title": "专利数据订单一览",
      "icon": "&#xe60a;",
      "href": "/pageTag/menu?url=patentOrderList",
      "spread": false
    },
    {
      "title": "专利报告订单一览",
      "icon": "&#xe63c;",
      "href": "/pageTag/menu?url=reportOrderList",
      "spread": false
    },
    {
      "title": "专利库订单一览",
      "icon": "&#xe658;",
      "href": "/pageTag/menu?url=patentFavoriteOrderList",
      "spread": false
    },
    {
      "title": "专利监控订单一览",
      "icon": "&#xe7ae;",
      "href": "/pageTag/menu?url=monitorOrderList",
      "spread": false
    },
    {
      "title": "专利缴费订单一览",
      "icon": "&#xe62a;",
      "href": "/pageTag/menu?url=patentFeeOrderList",
      "spread": false
    },
    {
      "title": "商标数据订单一览",
      "icon": "&#xe756;",
      "href": "/pageTag/menu?url=tmDataOrderList",
      "spread": false
    },
    {
      "title": "商标报告订单一览",
      "icon": "&#xe674;",
      "href": "/pageTag/menu?url=tmAnalyzerOrderList",
      "spread": false
    },
    {
      "title": "商标库订单一览",
      "icon": "&#xe658;",
      "href": "/pageTag/menu?url=tmFavoriteOrderList",
      "spread": false
    },
    {
      "title": "商标监控订单一览",
      "icon": "&#xe66c;",
      "href": "/pageTag/menu?url=tmMonitorOrderList",
      "spread": false
    },
    {
      "title": "商标查新订单一览",
      "icon": "&#x1005;",
      "href": "/pageTag/menu?url=tmLatestOrderList",
      "spread": false
    }
  ]
}


